Passenger Trend between School and Public Holidays
…
ℹ Use `spec()` to retrieve the full column specification for this data.
ℹ Specify the column types or set `show_col_types = FALSE` to quiet this message.
Rows: 7242 Columns: 7
── Column specification ────────────────────────────────────────────────────────
Delimiter: ","
chr (1): ISO3
dbl (6): Year, Month, Total, Domestic, International, Total_OS

ℹ Use `spec()` to retrieve the full column specification for this data.
ℹ Specify the column types or set `show_col_types = FALSE` to quiet this message.

Data Cleaning and Preparation

# A tibble: 102 × 7
   ADM_name ISO3  Date       Name                       Type          Year Month
   <chr>    <chr> <date>     <chr>                      <chr>        <dbl> <dbl>
 1 Us       USA   2010-01-18 Martin Luther King Jr. Day Public holi…  2010     1
 2 Us       USA   2010-02-15 Presidents' Day            Public holi…  2010     2
 3 Us       USA   2010-05-31 Memorial Day               Public holi…  2010     5
 4 Us       USA   2010-07-04 Independence Day           Public holi…  2010     7
 5 Us       USA   2010-07-05 Independence Day observed  Public holi…  2010     7
 6 Us       USA   2010-09-06 Labor Day                  Public holi…  2010     9
 7 Us       USA   2010-10-11 Columbus Day               Public holi…  2010    10
 8 Us       USA   2010-11-11 Veterans Day               Public holi…  2010    11
 9 Us       USA   2010-11-25 Thanksgiving Day           Public holi…  2010    11
10 Us       USA   2010-12-24 Christmas Day observed     Public holi…  2010    12
# ℹ 92 more rows
…
